{
	"info": {
		"_postman_id": "e4f91fa3-d9a0-4cd4-bb62-9ba03f4632de",
		"name": "CAT-Stack",
		"description": "This Postman Collection contains the test suite for CAT-Stack's API endpoints.",
		"schema": "https://schema.getpostman.com/json/collection/v2.1.0/collection.json"
	},
	"item": [
		{
			"name": "JWT Endpoints",
			"item": [
				{
					"name": "jwt-create",
					"event": [
						{
							"listen": "test",
							"script": {
								"id": "5918fbe1-9391-4a39-9acd-ac686d230548",
								"exec": [
									"const jsonData = pm.response.json();",
									"",
									"pm.test(\"JWT created\", function () {",
									"  pm.response.to.have.status(200);",
									"});",
									"",
									"pm.test('Response has the \"refresh\" key in token', function () {",
									"  pm.expect(jsonData).to.have.property('refresh');",
									"});",
									"",
									"pm.test('Response has the \"access\" key in token', function () {",
									"  pm.expect(jsonData).to.have.property('access');",
									"});"
								],
								"type": "text/javascript"
							}
						}
					],
					"request": {
						"method": "POST",
						"header": [
							{
								"key": "Content-Type",
								"name": "Content-Type",
								"type": "text",
								"value": "application/json"
							}
						],
						"body": {
							"mode": "raw",
							"raw": "{\r\n  \"app_name\": \"cat_stack_gov\"\r\n}"
						},
						"url": {
							"raw": "{{CAT_STACK_API_URL}}/api/auth/jwt/create_token_no_auth/",
							"host": [
								"{{CAT_STACK_API_URL}}"
							],
							"path": [
								"api",
								"auth",
								"jwt",
								"create_token_no_auth",
								""
							]
						},
						"description": "Adds the survey statistics info to the PostgreSQL DB when sent to Django."
					},
					"response": []
				},
				{
					"name": "jwt-verify",
					"event": [
						{
							"listen": "test",
							"script": {
								"id": "a75e2761-38da-412a-9f84-a5369aa6eab1",
								"exec": [
									"const jsonData = pm.response.json();",
									"",
									"pm.test(\"JWT verified\", function () {",
									"  pm.response.to.have.status(200);",
									"});"
								],
								"type": "text/javascript"
							}
						},
						{
							"listen": "prerequest",
							"script": {
								"id": "e0ab7f62-9a63-4df7-9aff-6165d352fd86",
								"exec": [
									"// Retrieve new JWTs before test starts\r",
									"const echoPostRequest = {\r",
									"  url: pm.environment.get(\"CAT_STACK_API_URL\") + '/api/auth/jwt/create_token_no_auth/',\r",
									"  method: 'POST',\r",
									"  header: { \"Content-Type\": \"application/json\" },\r",
									"  body: {\r",
									"    mode: 'raw',\r",
									"    raw: JSON.stringify({ app_name: \"cat_stack_gov\" })\r",
									"  }\r",
									"};\r",
									"\r",
									"pm.sendRequest(echoPostRequest, function (err, res) {\r",
									"  if (err === null) {\r",
									"    const responseJson = res.json();\r",
									"    pm.environment.set(\"access_token\", responseJson.access);\r",
									"    pm.environment.set(\"refresh_token\", responseJson.refresh);\r",
									"  }\r",
									"});"
								],
								"type": "text/javascript"
							}
						}
					],
					"request": {
						"method": "POST",
						"header": [
							{
								"key": "Content-Type",
								"name": "Content-Type",
								"type": "text",
								"value": "application/json"
							}
						],
						"body": {
							"mode": "raw",
							"raw": "{ \n\t\"token\": \"{{access_token}}\"\n}"
						},
						"url": {
							"raw": "{{CAT_STACK_API_URL}}/api/auth/jwt/verify_token/",
							"host": [
								"{{CAT_STACK_API_URL}}"
							],
							"path": [
								"api",
								"auth",
								"jwt",
								"verify_token",
								""
							]
						},
						"description": "Adds the survey statistics info to the PostgreSQL DB when sent to Django."
					},
					"response": []
				},
				{
					"name": "jwt-refresh",
					"event": [
						{
							"listen": "test",
							"script": {
								"id": "3e64a1aa-413a-4bf1-bba7-7ca7935f9967",
								"exec": [
									"const jsonData = pm.response.json();",
									"",
									"pm.test(\"JWT created\", function () {",
									"  pm.response.to.have.status(200);",
									"});",
									"",
									"pm.test('Response has the \"refresh\" key in token', function () {",
									"  pm.expect(jsonData).to.have.property('refresh');",
									"});",
									"",
									"pm.test('Response has the \"access\" key in token', function () {",
									"  pm.expect(jsonData).to.have.property('access');",
									"});"
								],
								"type": "text/javascript"
							}
						},
						{
							"listen": "prerequest",
							"script": {
								"id": "e7103dda-8382-4df4-97c6-5a6a69da3c4b",
								"exec": [
									"// Retrieve new JWTs before test starts\r",
									"const echoPostRequest = {\r",
									"  url: pm.environment.get(\"CAT_STACK_API_URL\") + '/api/auth/jwt/create_token_no_auth/',\r",
									"  method: 'POST',\r",
									"  header: { \"Content-Type\": \"application/json\" },\r",
									"  body: {\r",
									"    mode: 'raw',\r",
									"    raw: JSON.stringify({ app_name: \"cat_stack_gov\" })\r",
									"  }\r",
									"};\r",
									"\r",
									"pm.sendRequest(echoPostRequest, function (err, res) {\r",
									"  if (err === null) {\r",
									"    const responseJson = res.json();\r",
									"    pm.environment.set(\"access_token\", responseJson.access);\r",
									"    pm.environment.set(\"refresh_token\", responseJson.refresh);\r",
									"  }\r",
									"});"
								],
								"type": "text/javascript"
							}
						}
					],
					"request": {
						"method": "POST",
						"header": [
							{
								"key": "Content-Type",
								"name": "Content-Type",
								"type": "text",
								"value": "application/json"
							}
						],
						"body": {
							"mode": "raw",
							"raw": "{ \n\t\"refresh\": \"{{refresh_token}}\"\n}"
						},
						"url": {
							"raw": "{{CAT_STACK_API_URL}}/api/auth/jwt/refresh_token/",
							"host": [
								"{{CAT_STACK_API_URL}}"
							],
							"path": [
								"api",
								"auth",
								"jwt",
								"refresh_token",
								""
							]
						},
						"description": "Adds the survey statistics info to the PostgreSQL DB when sent to Django."
					},
					"response": []
				}
			],
			"protocolProfileBehavior": {}
		},
		{
			"name": "Auth-Required Tests",
			"item": [
				{
					"name": "sample-endpoint/",
					"event": [
						{
							"listen": "test",
							"script": {
								"id": "d4e2dc6b-73a4-45e7-a437-bdfddc81e76e",
								"exec": [
									"// Ensure that a DB entry has been created successfully (expects status code: 200)",
									"pm.test(\"DB entry has been created successfully\", function () {",
									"    pm.response.to.have.status(200);",
									"});"
								],
								"type": "text/javascript"
							}
						}
					],
					"request": {
						"method": "POST",
						"header": [
							{
								"key": "Content-Type",
								"name": "Content-Type",
								"value": "application/json",
								"type": "text"
							}
						],
						"body": {
							"mode": "raw",
							"raw": "{\r\n  \"name\": \"Test name\",\r\n  \"test_id\": \"3\",\r\n  \"content\": \"Testing content to check if it works!\"\r\n}"
						},
						"url": {
							"raw": "{{CAT_STACK_API_URL}}/api/sample-endpoint/",
							"host": [
								"{{CAT_STACK_API_URL}}"
							],
							"path": [
								"api",
								"sample-endpoint",
								""
							]
						},
						"description": "Adds the sample endpoint info to the PostgreSQL DB when sent to Django."
					},
					"response": []
				},
				{
					"name": "add-log",
					"event": [
						{
							"listen": "test",
							"script": {
								"id": "d4e2dc6b-73a4-45e7-a437-bdfddc81e76e",
								"exec": [
									"pm.test(\"Logs have been successfully accepted by API\", function () {\r",
									"    pm.response.to.have.status(200);\r",
									"});"
								],
								"type": "text/javascript"
							}
						}
					],
					"request": {
						"method": "POST",
						"header": [
							{
								"key": "Content-Type",
								"name": "Content-Type",
								"type": "text",
								"value": "application/json"
							}
						],
						"body": {
							"mode": "raw",
							"raw": "{\n  \"logs\": [\n\t{\n\t\t\"timestamp\": \"2020-04-24T13:13:23.988Z\",\n\t\t\"severity\": \"ERROR\",\n\t\t\"message\": \"Error Message Sample\",\n\t\t\"stacktrace\": \"Stack trace sample\"\n\t}\n  ]\n}"
						},
						"url": {
							"raw": "{{CAT_STACK_API_URL}}/api/add-log/",
							"host": [
								"{{CAT_STACK_API_URL}}"
							],
							"path": [
								"api",
								"add-log",
								""
							]
						},
						"description": "Sends log details to the PostgreSQL DB when sent to Django."
					},
					"response": []
				}
			],
			"auth": {
				"type": "bearer",
				"bearer": [
					{
						"key": "token",
						"value": "{{access_token}}",
						"type": "string"
					}
				]
			},
			"event": [
				{
					"listen": "prerequest",
					"script": {
						"id": "e4315f36-b711-4361-9870-a88d33aa922f",
						"type": "text/javascript",
						"exec": [
							"// Retrieve new JWTs before test starts",
							"const echoPostRequest = {",
							"  url: pm.environment.get(\"CAT_STACK_API_URL\") + '/api/auth/jwt/create_token_no_auth/',",
							"  method: 'POST',",
							"  header: { \"Content-Type\": \"application/json\" },",
							"  body: {",
							"    mode: 'raw',",
							"    raw: JSON.stringify({ app_name: \"cat_stack_gov\" })",
							"  }",
							"};",
							"",
							"pm.sendRequest(echoPostRequest, function (err, res) {",
							"  if (err === null) {",
							"    const responseJson = res.json();",
							"    pm.environment.set(\"access_token\", responseJson.access);",
							"    pm.environment.set(\"refresh_token\", responseJson.refresh);",
							"  }",
							"});"
						]
					}
				},
				{
					"listen": "test",
					"script": {
						"id": "b10f7e2d-a56c-4c92-8b73-44bcf04962ef",
						"type": "text/javascript",
						"exec": [
							""
						]
					}
				}
			],
			"protocolProfileBehavior": {}
		}
	],
	"event": [
		{
			"listen": "prerequest",
			"script": {
				"id": "549a4465-9515-4e18-9f0e-7e755739a997",
				"type": "text/javascript",
				"exec": [
					""
				]
			}
		},
		{
			"listen": "test",
			"script": {
				"id": "2a637329-4449-4549-958d-8eb8ddeccd8c",
				"type": "text/javascript",
				"exec": [
					""
				]
			}
		}
	]
}