<?xml version="1.0" standalone="no"?>
<!DOCTYPE svg PUBLIC "-//W3C//DTD SVG 20010904//EN"
 "http://www.w3.org/TR/2001/REC-SVG-20010904/DTD/svg10.dtd">
<svg version="1.0" xmlns="http://www.w3.org/2000/svg"
 width="144.000000pt" height="144.000000pt" viewBox="0 0 144.000000 144.000000"
 preserveAspectRatio="xMidYMid meet">
<metadata>
Created by potrace 1.11, written by Peter Selinger 2001-2013
</metadata>
<g transform="translate(0.000000,144.000000) scale(0.100000,-0.100000)"
fill="#000000" stroke="none">
<path d="M705 1330 c-9 -30 -94 -178 -106 -185 -5 -4 -34 8 -65 26 -48 27 -55
29 -51 13 3 -11 11 -46 17 -79 6 -33 15 -78 20 -100 18 -83 23 -165 11 -165
-13 0 -61 49 -119 122 -20 26 -40 47 -43 48 -4 0 -12 -13 -19 -29 -6 -16 -20
-37 -31 -47 -18 -16 -23 -16 -90 0 -39 10 -73 16 -75 13 -2 -2 0 -17 6 -33 6
-16 16 -62 24 -102 l14 -74 -34 -14 -35 -15 94 -78 c103 -86 197 -180 197
-197 0 -6 -7 -30 -15 -53 -14 -41 -14 -41 8 -36 65 15 179 30 231 30 l59 0 -2
-75 c-2 -41 -4 -110 -6 -152 l-4 -78 30 0 29 0 -6 128 c-3 70 -7 140 -9 156
l-3 29 83 -7 c72 -5 118 -12 212 -32 21 -4 22 -3 8 31 -8 19 -15 44 -15 55 0
23 102 127 213 217 37 31 67 57 67 59 0 2 -13 10 -30 19 -27 14 -29 19 -25 53
3 20 13 67 24 105 20 72 17 76 -32 58 -14 -6 -43 -12 -65 -16 -34 -5 -44 -2
-62 17 -11 12 -23 33 -26 45 -8 29 -18 29 -37 1 -9 -13 -38 -48 -66 -78 -28
-30 -50 -58 -51 -62 0 -5 -7 -8 -15 -8 -21 0 -19 52 6 180 11 58 23 122 25
143 l6 38 -51 -32 c-48 -29 -53 -30 -70 -15 -10 9 -38 57 -62 106 -24 50 -47
90 -51 90 -3 0 -10 -9 -13 -20z"/>
</g>
</svg>
